{
    "pedidos": [
        {
            "id": {
                "__atributo": {
                    "valor_exemplo": "24562",
                    "valor_padrao": "",
                    "descricao": "Id do pedido gerado na loja virtual",
                    "opcional": "0",
                    "observacao": "",
                    "validacoes": [
                        {
                            "validacao": "\\RestApi\\Validacoes\\TiposSql\\Integer",
                            "parametros": {
                                "tamanho": "11"
                            }
                        }
                    ]
                }
            },
            "distribuidor_indicador_id": {
                "__atributo": {
                    "valor_exemplo": "1243",
                    "valor_padrao": "0",
                    "descricao": "Id do distribuidor que indicou ou divulgou a loja virtual atrav\u00e9s de seu link de divulga\u00e7\u00e3o para tornar poss\u00edvel identifica\u00e7\u00e3o e comissionamento do divulgador, este campo deve ser usado apenas para clientes do tipo 'cliente_final'",
                    "opcional": "1",
                    "observacao": "",
                    "validacoes": [
                        {
                            "validacao": "\\RestApi\\Validacoes\\TiposSql\\Integer",
                            "parametros": {
                                "tamanho": "11"
                            }
                        },
                        {
                            "validacao": "\\RestApi\\Validacoes\\DistribuidorExiste",
                            "parametros": {}
                        }
                    ]
                }
            },
            "distribuidor_comprador_id": {
                "__atributo": {
                    "valor_exemplo": 987567,
                    "valor_padrao": "0",
                    "descricao": "Id do distribuidor que possui a conta do cliente relacionado que realizou a compra",
                    "opcional": "1",
                    "observacao": "",
                    "validacoes": [
                        {
                            "validacao": "\\RestApi\\Validacoes\\TiposSql\\Integer",
                            "parametros": {
                                "tamanho": "11"
                            }
                        },
                        {
                            "validacao": "\\RestApi\\Validacoes\\DistribuidorExiste",
                            "parametros": {}
                        }
                    ]
                }
            },
            "loja_id": {
                "__atributo": {
                    "valor_exemplo": "0",
                    "valor_padrao": "0",
                    "descricao": "Id da loja virtual ou distribuidora que recebeu o pedido",
                    "opcional": "1",
                    "observacao": "",
                    "validacoes": [
                        {
                            "validacao": "\\RestApi\\Validacoes\\TiposSql\\Integer",
                            "parametros": {
                                "tamanho": "11"
                            }
                        }
                    ]
                }
            },
            "loja_nome": {
                "__atributo": {
                    "valor_exemplo": "Loja Virtual Padr\u00e3o",
                    "valor_padrao": "",
                    "descricao": "Nome da loja ou distribuidora que recebeu o pedido",
                    "opcional": "1",
                    "observacao": "",
                    "validacoes": [
                        {
                            "validacao": "\\RestApi\\Validacoes\\TiposSql\\Varchar",
                            "parametros": {
                                "tamanho": "64"
                            }
                        }
                    ]
                }
            },
            "cliente_id": {
                "__atributo": {
                    "valor_exemplo": "12342",
                    "valor_padrao": "",
                    "descricao": "Id do cadastro na loja virtual do cliente que realizou a compra",
                    "opcional": "0",
                    "observacao": "",
                    "validacoes": [
                        {
                            "validacao": "\\RestApi\\Validacoes\\TiposSql\\Integer",
                            "parametros": {
                                "tamanho": "11) unsigne"
                            }
                        }
                    ]
                }
            },
            "tipo_id": {
                "__atributo": {
                    "valor_exemplo": "102",
                    "valor_padrao": "",
                    "descricao": "Id do grupo de consumo ou tipo de compra, do pedido",
                    "opcional": "0",
                    "observacao": "",
                    "validacoes": [
                        {
                            "validacao": "\\RestApi\\Validacoes\\TiposSql\\Integer",
                            "parametros": {
                                "tamanho": "11"
                            }
                        }
                    ]
                }
            },
            "tipo_chave": {
                "__atributo": {
                    "valor_exemplo": "cliente_inativo",
                    "valor_padrao": "",
                    "descricao": "Chave do tipo de grupo de consumo do pedido",
                    "opcional": "1",
                    "observacao": "",
                    "validacoes": [
                        {
                            "validacao": "\\RestApi\\Validacoes\\TiposSql\\Varchar",
                            "parametros": {
                                "tamanho": "50"
                            }
                        }
                    ]
                }
            },
            "tipo_nome": {
                "__atributo": {
                    "valor_exemplo": "Comprando Ativa\u00e7\u00e3o",
                    "valor_padrao": "",
                    "descricao": "Nome do tipo de grupo de consumo do pedido",
                    "opcional": "1",
                    "observacao": "",
                    "validacoes": [
                        {
                            "validacao": "\\RestApi\\Validacoes\\TiposSql\\Varchar",
                            "parametros": {
                                "tamanho": "200"
                            }
                        }
                    ]
                }
            },
            "tipo_descricao": {
                "__atributo": {
                    "valor_exemplo": "Cliente comprando ativa\u00e7\u00e3o",
                    "valor_padrao": "",
                    "descricao": "Descri\u00e7\u00e3o do tipo de grupo de consumo do pedido",
                    "opcional": "1",
                    "observacao": "",
                    "validacoes": [
                        {
                            "validacao": "\\RestApi\\Validacoes\\TiposSql\\Text",
                            "parametros": {}
                        }
                    ]
                }
            },
            "cliente_nome": {
                "__atributo": {
                    "valor_exemplo": "Lindovaldo",
                    "valor_padrao": "",
                    "descricao": "Nome do cliente que realizou o pedido",
                    "opcional": "1",
                    "observacao": "",
                    "validacoes": [
                        {
                            "validacao": "\\RestApi\\Validacoes\\TiposSql\\Varchar",
                            "parametros": {
                                "tamanho": "32"
                            }
                        }
                    ]
                }
            },
            "cliente_sobrenome": {
                "__atributo": {
                    "valor_exemplo": "Silva",
                    "valor_padrao": "",
                    "descricao": "Sobrenome do cliente",
                    "opcional": "1",
                    "observacao": "",
                    "validacoes": [
                        {
                            "validacao": "\\RestApi\\Validacoes\\TiposSql\\Varchar",
                            "parametros": {
                                "tamanho": "32"
                            }
                        }
                    ]
                }
            },
            "cliente_email": {
                "__atributo": {
                    "valor_exemplo": "lindovaldo_silva@provedor.com",
                    "valor_padrao": "",
                    "descricao": "Email do cliente",
                    "opcional": "1",
                    "observacao": "",
                    "validacoes": [
                        {
                            "validacao": "\\RestApi\\Validacoes\\TiposSql\\Varchar",
                            "parametros": {
                                "tamanho": "96"
                            }
                        }
                    ]
                }
            },
            "cliente_telefone": {
                "__atributo": {
                    "valor_exemplo": "62988556644",
                    "valor_padrao": "",
                    "descricao": "Telefone do cliente",
                    "opcional": "1",
                    "observacao": "",
                    "validacoes": [
                        {
                            "validacao": "\\RestApi\\Validacoes\\TiposSql\\Varchar",
                            "parametros": {
                                "tamanho": "32"
                            }
                        }
                    ]
                }
            },
            "cliente_rg": {
                "__atributo": {
                    "valor_exemplo": "9856535",
                    "valor_padrao": "",
                    "descricao": "Rg do cliente",
                    "opcional": "1",
                    "observacao": "",
                    "validacoes": [
                        {
                            "validacao": "\\RestApi\\Validacoes\\TiposSql\\Varchar",
                            "parametros": {
                                "tamanho": "50"
                            }
                        }
                    ]
                }
            },
            "cliente_cpf": {
                "__atributo": {
                    "valor_exemplo": "85566998542",
                    "valor_padrao": "",
                    "descricao": "Cpf do cliente",
                    "opcional": "1",
                    "observacao": "",
                    "validacoes": [
                        {
                            "validacao": "\\RestApi\\Validacoes\\TiposSql\\Varchar",
                            "parametros": {
                                "tamanho": "45"
                            }
                        }
                    ]
                }
            },
            "cliente_cnpj": {
                "__atributo": {
                    "valor_exemplo": "75985000136",
                    "valor_padrao": "",
                    "descricao": "Cnpj do cliente",
                    "opcional": "1",
                    "observacao": "",
                    "validacoes": [
                        {
                            "validacao": "\\RestApi\\Validacoes\\TiposSql\\Varchar",
                            "parametros": {
                                "tamanho": "200"
                            }
                        }
                    ]
                }
            },
            "cliente_ie": {
                "__atributo": {
                    "valor_exemplo": "985693",
                    "valor_padrao": "",
                    "descricao": "Inscri\u00e7\u00e3o estadual do cliente",
                    "opcional": "1",
                    "observacao": "",
                    "validacoes": [
                        {
                            "validacao": "\\RestApi\\Validacoes\\TiposSql\\Varchar",
                            "parametros": {
                                "tamanho": "50"
                            }
                        }
                    ]
                }
            },
            "pagamento_confirmado": {
                "__atributo": {
                    "valor_exemplo": "1",
                    "valor_padrao": "0",
                    "descricao": "Situa\u00e7\u00e3o do pagamento do pedido ('1' para pago e '0' para n\u00e3o pago) - Caso seja informado valor '1', para pedido 'pago', ap\u00f3s realizar a compra o sistema automaticamente ir\u00e1 efetuar seu pagamento e rodar todos gatilhos da baixa da compra.",
                    "opcional": "1",
                    "observacao": "",
                    "validacoes": [
                        {
                            "validacao": "\\RestApi\\Validacoes\\TiposSql\\SmallInt",
                            "parametros": {
                                "tamanho": "1"
                            }
                        }
                    ]
                }
            },
            "comanda_impressao": {
                "__atributo": {
                    "valor_exemplo": "0",
                    "valor_padrao": "0",
                    "descricao": "Representa se a comanda foi impressa ou n\u00e3o",
                    "opcional": "1",
                    "observacao": "",
                    "validacoes": [
                        {
                            "validacao": "\\RestApi\\Validacoes\\TiposSql\\SmallInt",
                            "parametros": {
                                "tamanho": "1"
                            }
                        }
                    ]
                }
            },
            "fatura_impressao": {
                "__atributo": {
                    "valor_exemplo": "1",
                    "valor_padrao": "0",
                    "descricao": "Representa se a fatura foi impressa ou n\u00e3o",
                    "opcional": "1",
                    "observacao": "",
                    "validacoes": [
                        {
                            "validacao": "\\RestApi\\Validacoes\\TiposSql\\SmallInt",
                            "parametros": {
                                "tamanho": "1"
                            }
                        }
                    ]
                }
            },
            "necessita_frete": {
                "__atributo": {
                    "valor_exemplo": "1",
                    "valor_padrao": "0",
                    "descricao": "Retorna se o pedido necessita de frete ou n\u00e3o",
                    "opcional": "1",
                    "observacao": "",
                    "validacoes": [
                        {
                            "validacao": "\\RestApi\\Validacoes\\TiposSql\\SmallInt",
                            "parametros": {
                                "tamanho": "1"
                            }
                        }
                    ]
                }
            },
            "data_pagamento": {
                "__atributo": {
                    "valor_exemplo": "2017-12-07 12:05:05",
                    "valor_padrao": "",
                    "descricao": "Data de pagamento do pedido",
                    "opcional": "1",
                    "observacao": "",
                    "validacoes": [
                        {
                            "validacao": "\\RestApi\\Validacoes\\TiposSql\\DateTime",
                            "parametros": {}
                        }
                    ]
                }
            },
            "cliente_logradouro": {
                "__atributo": {
                    "valor_exemplo": "Rua falsa 123",
                    "valor_padrao": "",
                    "descricao": "Logradouro do endere\u00e7o do cliente",
                    "opcional": "1",
                    "observacao": "",
                    "validacoes": [
                        {
                            "validacao": "\\RestApi\\Validacoes\\TiposSql\\Varchar",
                            "parametros": {
                                "tamanho": "128"
                            }
                        }
                    ]
                }
            },
            "cliente_bairro": {
                "__atributo": {
                    "valor_exemplo": "Guanabara",
                    "valor_padrao": "",
                    "descricao": "Bairro do endere\u00e7o do cliente",
                    "opcional": "1",
                    "observacao": "",
                    "validacoes": [
                        {
                            "validacao": "\\RestApi\\Validacoes\\TiposSql\\Varchar",
                            "parametros": {
                                "tamanho": "128"
                            }
                        }
                    ]
                }
            },
            "cliente_cep": {
                "__atributo": {
                    "valor_exemplo": "74938120",
                    "valor_padrao": "",
                    "descricao": "Cep ou codigo postal do cliente",
                    "opcional": "1",
                    "observacao": "",
                    "validacoes": [
                        {
                            "validacao": "\\RestApi\\Validacoes\\TiposSql\\Varchar",
                            "parametros": {
                                "tamanho": "10"
                            }
                        }
                    ]
                }
            },
            "cliente_numero": {
                "__atributo": {
                    "valor_exemplo": "340",
                    "valor_padrao": "",
                    "descricao": "Numero do endere\u00e7o do cliente",
                    "opcional": "1",
                    "observacao": "",
                    "validacoes": []
                }
            },
            "cliente_complemento": {
                "__atributo": {
                    "valor_exemplo": "pr\u00f3ximo ao shopping",
                    "valor_padrao": "",
                    "descricao": "complemento do endere\u00e7o do cliente",
                    "opcional": "1",
                    "observacao": "",
                    "validacoes": [
                        {
                            "validacao": "\\RestApi\\Validacoes\\TiposSql\\Text",
                            "parametros": {}
                        }
                    ]
                }
            },
            "cliente_cidade": {
                "__atributo": {
                    "valor_exemplo": "Goiania",
                    "valor_padrao": "",
                    "descricao": "Cidade do endere\u00e7o do cliente",
                    "opcional": "1",
                    "observacao": "",
                    "validacoes": [
                        {
                            "validacao": "\\RestApi\\Validacoes\\TiposSql\\Varchar",
                            "parametros": {
                                "tamanho": "200"
                            }
                        }
                    ]
                }
            },
            "cliente_uf": {
                "__atributo": {
                    "valor_exemplo": "Goias",
                    "valor_padrao": "",
                    "descricao": "Unidade federativa do endere\u00e7o do cliente",
                    "opcional": "1",
                    "observacao": "",
                    "validacoes": [
                        {
                            "validacao": "\\RestApi\\Validacoes\\TiposSql\\Varchar",
                            "parametros": {
                                "tamanho": "32"
                            }
                        }
                    ]
                }
            },
            "entrega_nome": {
                "__atributo": {
                    "valor_exemplo": "Osvaldete",
                    "valor_padrao": "",
                    "descricao": "Nome do recebedor da entrega",
                    "opcional": "1",
                    "observacao": "",
                    "validacoes": [
                        {
                            "validacao": "\\RestApi\\Validacoes\\TiposSql\\Varchar",
                            "parametros": {
                                "tamanho": "32"
                            }
                        }
                    ]
                }
            },
            "entrega_sobrenome": {
                "__atributo": {
                    "valor_exemplo": "Carvalho",
                    "valor_padrao": "",
                    "descricao": "Sobrenome do recebedor da entrega",
                    "opcional": "1",
                    "observacao": "",
                    "validacoes": [
                        {
                            "validacao": "\\RestApi\\Validacoes\\TiposSql\\Varchar",
                            "parametros": {
                                "tamanho": "32"
                            }
                        }
                    ]
                }
            },
            "entrega_logradouro": {
                "__atributo": {
                    "valor_exemplo": "Rua fict\u00edcia 3211",
                    "valor_padrao": "",
                    "descricao": "Logradouro do endere\u00e7o de entrega",
                    "opcional": "1",
                    "observacao": "",
                    "validacoes": [
                        {
                            "validacao": "\\RestApi\\Validacoes\\TiposSql\\Varchar",
                            "parametros": {
                                "tamanho": "128"
                            }
                        }
                    ]
                }
            },
            "entrega_bairro": {
                "__atributo": {
                    "valor_exemplo": "Mans\u00f5es Paraiso",
                    "valor_padrao": "",
                    "descricao": "Bairro do endere\u00e7o de entrega",
                    "opcional": "1",
                    "observacao": "",
                    "validacoes": [
                        {
                            "validacao": "\\RestApi\\Validacoes\\TiposSql\\Varchar",
                            "parametros": {
                                "tamanho": "128"
                            }
                        }
                    ]
                }
            },
            "entrega_cep": {
                "__atributo": {
                    "valor_exemplo": "74986183",
                    "valor_padrao": "",
                    "descricao": "Cep ou codigo postal do endere\u00e7o de entrega",
                    "opcional": "1",
                    "observacao": "",
                    "validacoes": [
                        {
                            "validacao": "\\RestApi\\Validacoes\\TiposSql\\Varchar",
                            "parametros": {
                                "tamanho": "10"
                            }
                        }
                    ]
                }
            },
            "entrega_numero": {
                "__atributo": {
                    "valor_exemplo": "340",
                    "valor_padrao": "",
                    "descricao": "Numero do endere\u00e7o de entrega",
                    "opcional": "1",
                    "observacao": "",
                    "validacoes": []
                }
            },
            "entrega_complemento": {
                "__atributo": {
                    "valor_exemplo": "pr\u00f3ximo ao shopping",
                    "valor_padrao": "",
                    "descricao": "Complemento do endere\u00e7o de entrega",
                    "opcional": "1",
                    "observacao": "",
                    "validacoes": [
                        {
                            "validacao": "\\RestApi\\Validacoes\\TiposSql\\Text",
                            "parametros": {}
                        }
                    ]
                }
            },
            "entrega_cidade": {
                "__atributo": {
                    "valor_exemplo": "Goiania",
                    "valor_padrao": "",
                    "descricao": "Cidade do endere\u00e7o de entrega",
                    "opcional": "1",
                    "observacao": "",
                    "validacoes": [
                        {
                            "validacao": "\\RestApi\\Validacoes\\TiposSql\\Varchar",
                            "parametros": {
                                "tamanho": "200"
                            }
                        }
                    ]
                }
            },
            "entrega_uf": {
                "__atributo": {
                    "valor_exemplo": "Goias",
                    "valor_padrao": "",
                    "descricao": "Unidade federativa do endere\u00e7o de entrega",
                    "opcional": "1",
                    "observacao": "",
                    "validacoes": [
                        {
                            "validacao": "\\RestApi\\Validacoes\\TiposSql\\Varchar",
                            "parametros": {
                                "tamanho": "32"
                            }
                        }
                    ]
                }
            },
            "valor_total": {
                "__atributo": {
                    "valor_exemplo": "157.8",
                    "valor_padrao": "0.0000",
                    "descricao": "Valor total do pedido",
                    "opcional": "1",
                    "observacao": "",
                    "validacoes": [
                        {
                            "validacao": "\\RestApi\\Validacoes\\TiposSql\\Double",
                            "parametros": {
                                "tamanho": "15",
                                "decimal": "4"
                            }
                        }
                    ]
                }
            },
            "status_id": {
                "__atributo": {
                    "valor_exemplo": "3",
                    "valor_padrao": "1",
                    "descricao": "Id do status do pedido",
                    "opcional": "1",
                    "observacao": "",
                    "validacoes": [
                        {
                            "validacao": "\\RestApi\\Validacoes\\TiposSql\\Integer",
                            "parametros": {
                                "tamanho": "11"
                            }
                        }
                    ]
                }
            },
            "status_descricao": {
                "__atributo": {
                    "valor_exemplo": "Pagamento Confirmado",
                    "valor_padrao": "",
                    "descricao": "Descri\u00e7\u00e3o do status do pedido",
                    "opcional": "1",
                    "observacao": "",
                    "validacoes": [
                        {
                            "validacao": "\\RestApi\\Validacoes\\TiposSql\\Varchar",
                            "parametros": {
                                "tamanho": "64"
                            }
                        }
                    ]
                }
            },
            "moeda_codigo": {
                "__atributo": {
                    "valor_exemplo": "BRL",
                    "valor_padrao": "BRL",
                    "descricao": "C\u00f3digo ISO da moeda de pagamento",
                    "opcional": "1",
                    "observacao": "",
                    "validacoes": [
                        {
                            "validacao": "\\RestApi\\Validacoes\\TiposSql\\Varchar",
                            "parametros": {
                                "tamanho": "3"
                            }
                        }
                    ]
                }
            },
            "data_adicionado": {
                "__atributo": {
                    "valor_exemplo": "2017-12-07 12:05:05",
                    "valor_padrao": "",
                    "descricao": "Data que o pedido foi adicionado",
                    "opcional": "1",
                    "observacao": "",
                    "validacoes": [
                        {
                            "validacao": "\\RestApi\\Validacoes\\TiposSql\\DateTime",
                            "parametros": {}
                        }
                    ]
                }
            },
            "data_modificado": {
                "__atributo": {
                    "valor_exemplo": "2017-12-07 12:05:05",
                    "valor_padrao": "",
                    "descricao": "Data em que o pedido foi modificado a ultima vez",
                    "opcional": "1",
                    "observacao": "",
                    "validacoes": [
                        {
                            "validacao": "\\RestApi\\Validacoes\\TiposSql\\DateTime",
                            "parametros": {}
                        }
                    ]
                }
            },
            "custom_field": {
                "__atributo": {
                    "valor_exemplo": "custom_field",
                    "valor_padrao": "",
                    "descricao": "custom_field",
                    "opcional": "1",
                    "observacao": "",
                    "validacoes": [
                        {
                            "validacao": "\\RestApi\\Validacoes\\TiposSql\\Text",
                            "parametros": {}
                        }
                    ]
                }
            },
            "loja_documento": {
                "__atributo": {
                    "valor_exemplo": "12034723000190",
                    "valor_padrao": "",
                    "descricao": "CNPJ da loja que emitiu o pedido",
                    "opcional": "1",
                    "observacao": "",
                    "validacoes": [
                        {
                            "validacao": "\\RestApi\\Validacoes\\TiposSql\\Text",
                            "parametros": {}
                        }
                    ]
                }
            },
            "entrega_transportadora_codigo": {
                "__atributo": {
                    "valor_exemplo": "mandae.rapido",
                    "valor_padrao": "retirar",
                    "descricao": "C\u00f3digo da transportadora escolhida para entrega do pedido",
                    "opcional": "1",
                    "observacao": "",
                    "validacoes": [
                        {
                            "validacao": "\\RestApi\\Validacoes\\TiposSql\\Varchar",
                            "parametros": {
                                "tamanho": "128"
                            }
                        }
                    ]
                }
            },
            "entrega_transportadora_nome": {
                "__atributo": {
                    "valor_exemplo": "Correios",
                    "valor_padrao": "Retirar na Loja",
                    "descricao": "Nome da transportadora escolhida para entrega do pedido",
                    "opcional": "1",
                    "observacao": "",
                    "validacoes": [
                        {
                            "validacao": "\\RestApi\\Validacoes\\TiposSql\\Text",
                            "parametros": {}
                        }
                    ]
                }
            },
            "pagamento_metodo_descricao": {
                "__atributo": {
                    "valor_exemplo": "PagSeguro",
                    "valor_padrao": "Pagar ao Retirar na Loja",
                    "descricao": "Nome do tipo de pagamento escolhido para o pedido",
                    "opcional": "1",
                    "observacao": "",
                    "validacoes": [
                        {
                            "validacao": "\\RestApi\\Validacoes\\TiposSql\\Varchar",
                            "parametros": {
                                "tamanho": "128"
                            }
                        }
                    ]
                }
            },
            "pagamento_metodo_codigo": {
                "__atributo": {
                    "valor_exemplo": "pagseguro",
                    "valor_padrao": "cod",
                    "descricao": "C\u00f3digo do tipo de pagamento escolhido para o pedido",
                    "opcional": "1",
                    "observacao": "",
                    "validacoes": [
                        {
                            "validacao": "\\RestApi\\Validacoes\\TiposSql\\Varchar",
                            "parametros": {
                                "tamanho": "128"
                            }
                        }
                    ]
                }
            },
            "comentario": {
                "__atributo": {
                    "valor_exemplo": "Coment\u00e1rio do pedido",
                    "valor_padrao": "",
                    "descricao": "Coment\u00e1rio ou observa\u00e7\u00e3o anexada ao pedido, caso o cliente tenha adicionado alguma observa\u00e7\u00e3o \/ coment\u00e1rio ao pedido",
                    "opcional": "1",
                    "observacao": "",
                    "validacoes": [
                        {
                            "validacao": "\\RestApi\\Validacoes\\TiposSql\\Text",
                            "parametros": {}
                        }
                    ]
                }
            },
            "itens": [
                {
                    "item_id": {
                        "__atributo": {
                            "valor_exemplo": "153",
                            "valor_padrao": "",
                            "descricao": "Id do item",
                            "opcional": "0",
                            "observacao": "",
                            "validacoes": [
                                {
                                    "validacao": "\\RestApi\\Validacoes\\TiposSql\\Integer",
                                    "parametros": {
                                        "tamanho": "10"
                                    }
                                }
                            ]
                        }
                    },
                    "produto_id": {
                        "__atributo": {
                            "valor_exemplo": "1565",
                            "valor_padrao": "",
                            "descricao": "Id do produto",
                            "opcional": "0",
                            "observacao": "",
                            "validacoes": [
                                {
                                    "validacao": "\\RestApi\\Validacoes\\TiposSql\\Integer",
                                    "parametros": {
                                        "tamanho": "10"
                                    }
                                }
                            ]
                        }
                    },
                    "produto_descricao": {
                        "__atributo": {
                            "valor_exemplo": "Chinelo Brocs",
                            "valor_padrao": "",
                            "descricao": "Descri\u00e7\u00e3o do produto",
                            "opcional": "1",
                            "observacao": "",
                            "validacoes": [
                                {
                                    "validacao": "\\RestApi\\Validacoes\\TiposSql\\Varchar",
                                    "parametros": {
                                        "tamanho": "255"
                                    }
                                }
                            ]
                        }
                    },
                    "produto_modelo": {
                        "__atributo": {
                            "valor_exemplo": "chinelo_brocs_001",
                            "valor_padrao": "",
                            "descricao": "Modelo do produto",
                            "opcional": "1",
                            "observacao": "",
                            "validacoes": [
                                {
                                    "validacao": "\\RestApi\\Validacoes\\TiposSql\\Varchar",
                                    "parametros": {
                                        "tamanho": "255"
                                    }
                                }
                            ]
                        }
                    },
                    "quantidade": {
                        "__atributo": {
                            "valor_exemplo": "3",
                            "valor_padrao": "",
                            "descricao": "Quantidade do produto",
                            "opcional": "0",
                            "observacao": "",
                            "validacoes": [
                                {
                                    "validacao": "\\RestApi\\Validacoes\\TiposSql\\Integer",
                                    "parametros": {
                                        "tamanho": "10"
                                    }
                                }
                            ]
                        }
                    },
                    "valor_unitario": {
                        "__atributo": {
                            "valor_exemplo": "100.00",
                            "valor_padrao": "0.00",
                            "descricao": "Valor unit\u00e1rio do produto",
                            "opcional": "1",
                            "observacao": "",
                            "validacoes": [
                                {
                                    "validacao": "\\RestApi\\Validacoes\\TiposSql\\Double",
                                    "parametros": {
                                        "tamanho": "15",
                                        "decimal": "2"
                                    }
                                }
                            ]
                        }
                    },
                    "valor_total": {
                        "__atributo": {
                            "valor_exemplo": "200.00",
                            "valor_padrao": "0.00",
                            "descricao": "Valor total do item",
                            "opcional": "1",
                            "observacao": "",
                            "validacoes": [
                                {
                                    "validacao": "\\RestApi\\Validacoes\\TiposSql\\Double",
                                    "parametros": {
                                        "tamanho": "15",
                                        "decimal": "2"
                                    }
                                }
                            ]
                        }
                    },
                    "taxa": {
                        "__atributo": {
                            "valor_exemplo": "0.0",
                            "valor_padrao": "0.0",
                            "descricao": "Taxa do item",
                            "opcional": "1",
                            "observacao": "",
                            "validacoes": [
                                {
                                    "validacao": "\\RestApi\\Validacoes\\TiposSql\\Double",
                                    "parametros": {
                                        "tamanho": "15",
                                        "decimal": "2"
                                    }
                                }
                            ]
                        }
                    },
                    "produto_opcoes": [
                        {
                            "pedido_produto_opcao_id": {
                                "__atributo": {
                                    "valor_exemplo": "1",
                                    "valor_padrao": "",
                                    "descricao": "Id do registro da op\u00e7\u00e3o no pedido",
                                    "opcional": "0",
                                    "observacao": "",
                                    "validacoes": [
                                        {
                                            "validacao": "\\RestApi\\Validacoes\\TiposSql\\Integer",
                                            "parametros": {
                                                "tamanho": "10"
                                            }
                                        }
                                    ]
                                }
                            },
                            "nome": {
                                "__atributo": {
                                    "valor_exemplo": "Cor",
                                    "valor_padrao": "",
                                    "descricao": "Nome da op\u00e7\u00e3o",
                                    "opcional": "1",
                                    "observacao": "",
                                    "validacoes": [
                                        {
                                            "validacao": "\\RestApi\\Validacoes\\TiposSql\\Varchar",
                                            "parametros": {
                                                "tamanho": "255"
                                            }
                                        }
                                    ]
                                }
                            },
                            "valor": {
                                "__atributo": {
                                    "valor_exemplo": "Azul",
                                    "valor_padrao": "",
                                    "descricao": "Valor da op\u00e7\u00e3o",
                                    "opcional": "1",
                                    "observacao": "",
                                    "validacoes": [
                                        {
                                            "validacao": "\\RestApi\\Validacoes\\TiposSql\\Varchar",
                                            "parametros": {
                                                "tamanho": "255"
                                            }
                                        }
                                    ]
                                }
                            },
                            "produto_opcao_id": {
                                "__atributo": {
                                    "valor_exemplo": "1",
                                    "valor_padrao": "",
                                    "descricao": "Id da op\u00e7\u00e3o do produto",
                                    "opcional": "1",
                                    "observacao": "",
                                    "validacoes": [
                                        {
                                            "validacao": "\\RestApi\\Validacoes\\TiposSql\\Integer",
                                            "parametros": {
                                                "tamanho": "10"
                                            }
                                        }
                                    ]
                                }
                            },
                            "produto_opcao_valor_id": {
                                "__atributo": {
                                    "valor_exemplo": "3",
                                    "valor_padrao": "",
                                    "descricao": "Id do valor da op\u00e7\u00e3o",
                                    "opcional": "1",
                                    "observacao": "",
                                    "validacoes": [
                                        {
                                            "validacao": "\\RestApi\\Validacoes\\TiposSql\\Integer",
                                            "parametros": {
                                                "tamanho": "10"
                                            }
                                        }
                                    ]
                                }
                            },
                            "__joinobj": []
                        }
                    ],
                    "pontos_customizados": [
                        {
                            "ponto_id": {
                                "__atributo": {
                                    "valor_exemplo": "1",
                                    "valor_padrao": "",
                                    "descricao": "Id do registro do ponto",
                                    "opcional": "0",
                                    "observacao": "",
                                    "validacoes": [
                                        {
                                            "validacao": "\\RestApi\\Validacoes\\TiposSql\\Integer",
                                            "parametros": {
                                                "tamanho": "13"
                                            }
                                        }
                                    ]
                                }
                            },
                            "quantidade": {
                                "__atributo": {
                                    "valor_exemplo": "5",
                                    "valor_padrao": "",
                                    "descricao": "Quantidade de pontos",
                                    "opcional": "0",
                                    "observacao": "A quantidade de pontos s\u00f3 ser\u00e1 alterada no pedido criado, os demais lan\u00e7ar\u00e3o a quantidade configurada no sistema",
                                    "validacoes": []
                                }
                            },
                            "__joinobj": []
                        }
                    ],
                    "nome_customizado": {
                        "__atributo": {
                            "valor_exemplo": "produto 2",
                            "valor_padrao": "",
                            "descricao": "Nome que o produto ter\u00e1 na lista de produtos do pedido",
                            "opcional": "1",
                            "observacao": "O produto s\u00f3 ter\u00e1 esse nome no pedido criado",
                            "validacoes": [
                                {
                                    "validacao": "\\RestApi\\Validacoes\\TiposSql\\Text",
                                    "parametros": {}
                                }
                            ]
                        }
                    },
                    "preco_customizado": {
                        "__atributo": {
                            "valor_exemplo": "29.90",
                            "valor_padrao": "",
                            "descricao": "Pre\u00e7o que o produto ter\u00e1 no pedido",
                            "opcional": "1",
                            "observacao": "O produto s\u00f3 ter\u00e1 esse pre\u00e7o no pedido criado",
                            "validacoes": [
                                {
                                    "validacao": "\\RestApi\\Validacoes\\TiposSql\\Double",
                                    "parametros": {
                                        "decimal": "4",
                                        "tamanho": "15"
                                    }
                                }
                            ]
                        }
                    },
                    "__joinobj": []
                }
            ],
            "endereco_pagador_id": {
                "__atributo": {
                    "valor_exemplo": "1248",
                    "valor_padrao": "",
                    "descricao": "Id do endere\u00e7o relacionado ao pagador",
                    "opcional": "0",
                    "observacao": "",
                    "validacoes": [
                        {
                            "validacao": "\\RestApi\\Validacoes\\TiposSql\\Integer",
                            "parametros": {
                                "tamanho": "10"
                            }
                        }
                    ]
                }
            },
            "endereco_entrega_id": {
                "__atributo": {
                    "valor_exemplo": "3139",
                    "valor_padrao": "",
                    "descricao": "Id do endere\u00e7o relacionado a entrega",
                    "opcional": "1",
                    "observacao": "",
                    "validacoes": [
                        {
                            "validacao": "\\RestApi\\Validacoes\\TiposSql\\Integer",
                            "parametros": {
                                "tamanho": "10"
                            }
                        }
                    ]
                }
            },
            "__joinobj": []
        }
    ],
    "total": {
        "__atributo": {
            "valor_exemplo": "100.00",
            "valor_padrao": "0.0",
            "descricao": "Valor total do pedido",
            "opcional": "1",
            "observacao": "",
            "validacoes": [
                {
                    "validacao": "\\RestApi\\Validacoes\\TiposSql\\Double",
                    "parametros": {
                        "tamanho": "10",
                        "decimal": "2"
                    }
                }
            ]
        }
    },
    "e_ativacao": {
        "__atributo": {
            "valor_exemplo": "0",
            "valor_padrao": "0",
            "descricao": "Verifica se \u00e9 uma compra de ativa\u00e7\u00e3o ( Mesmo que seja uma compra de ativa\u00e7\u00e3o, o lan\u00e7amento da ativa\u00e7\u00e3o mensal para o cliente s\u00f3 ser\u00e1 realizado se a compra atender todas as regras de ativa\u00e7\u00e3o do sistema)",
            "opcional": "1",
            "observacao": "(1 para sim e 0 para n\u00e3o)",
            "validacoes": [
                {
                    "validacao": "\\RestApi\\Validacoes\\TiposSql\\SmallInt",
                    "parametros": {
                        "tamanho": "1",
                        "unsigned": "1"
                    }
                }
            ]
        }
    },
    "__includeobj": [
        "pedidos"
    ],
    "__joinobj": []
}