{
    "get": {
        "metodo": "get",
        "requer_oauth": "1",
        "oauth_escopo": "pedidos",
        "ativo": true,
        "documentacao_padrao": {
            "titulo": "Pedidos",
            "descricao": "Retorna os pedidos feitos na loja virtual por distribuidores da rede e clientes finais"
        },
        "entrada_padrao": {
            "querystring": [
                {
                    "nome": "id",
                    "descricao": "Filtro de busca por Id",
                    "valor_exemplo": 987567,
                    "opcional": 1,
                    "validacao": [
                        {
                            "validacao": "\\RestApi\\Validacoes\\TiposSql\\Integer",
                            "parametros": {
                                "tamanho": "11"
                            }
                        }
                    ]
                },
                {
                    "nome": "distribuidor_indicador_id",
                    "descricao": "Filtro de busca por id do distribuidor indicador",
                    "valor_exemplo": 987567,
                    "opcional": 1,
                    "validacao": [
                        {
                            "validacao": "\\RestApi\\Validacoes\\TiposSql\\Integer",
                            "parametros": {
                                "tamanho": "11"
                            }
                        }
                    ]
                },
                {
                    "nome": "distribuidor_comprador_id",
                    "descricao": "Filtro de busca por id do distribuidor comprador",
                    "valor_exemplo": 987567,
                    "opcional": 1,
                    "validacao": [
                        {
                            "validacao": "\\RestApi\\Validacoes\\TiposSql\\Integer",
                            "parametros": {
                                "tamanho": "11"
                            }
                        }
                    ]
                },
                {
                    "nome": "loja_id",
                    "descricao": "Filtro de busca por id da loja",
                    "valor_exemplo": 987567,
                    "opcional": 1,
                    "validacao": [
                        {
                            "validacao": "\\RestApi\\Validacoes\\TiposSql\\Integer",
                            "parametros": {
                                "tamanho": "11"
                            }
                        }
                    ]
                },
                {
                    "nome": "loja_nome",
                    "descricao": "Filtro de busca por nome da loja",
                    "valor_exemplo": "texto de no maxixo 64 caractere",
                    "opcional": 1,
                    "validacao": [
                        {
                            "validacao": "\\RestApi\\Validacoes\\TiposSql\\Varchar",
                            "parametros": {
                                "tamanho": "64"
                            }
                        }
                    ]
                },
                {
                    "nome": "cliente_id",
                    "descricao": "Filtro de busca por id do cliente",
                    "valor_exemplo": 987567,
                    "opcional": 1,
                    "validacao": [
                        {
                            "validacao": "\\RestApi\\Validacoes\\TiposSql\\Integer",
                            "parametros": {
                                "tamanho": "11) unsigne"
                            }
                        }
                    ]
                },
                {
                    "nome": "tipo_id",
                    "descricao": "Filtro de busca por id do tipo de compra",
                    "valor_exemplo": 987567,
                    "opcional": 1,
                    "validacao": [
                        {
                            "validacao": "\\RestApi\\Validacoes\\TiposSql\\Integer",
                            "parametros": {
                                "tamanho": "11"
                            }
                        }
                    ]
                },
                {
                    "nome": "tipo_chave",
                    "descricao": "Filtro de busca por chave do tipo de compra",
                    "valor_exemplo": "texto de no maxixo 50 caractere",
                    "opcional": 1,
                    "validacao": [
                        {
                            "validacao": "\\RestApi\\Validacoes\\TiposSql\\Varchar",
                            "parametros": {
                                "tamanho": "50"
                            }
                        }
                    ]
                },
                {
                    "nome": "tipo_nome",
                    "descricao": "Filtro de busca por nome do tipo de compra",
                    "valor_exemplo": "texto de no maxixo 200 caractere",
                    "opcional": 1,
                    "validacao": [
                        {
                            "validacao": "\\RestApi\\Validacoes\\TiposSql\\Varchar",
                            "parametros": {
                                "tamanho": "200"
                            }
                        }
                    ]
                },
                {
                    "nome": "tipo_descricao",
                    "descricao": "Filtro de busca por descri\u00e7\u00e3o do tipo de compra",
                    "valor_exemplo": "texto de no m\u00e1ximo 65535 caracteres",
                    "opcional": 1,
                    "validacao": [
                        {
                            "validacao": "\\RestApi\\Validacoes\\TiposSql\\Text",
                            "parametros": {}
                        }
                    ]
                },
                {
                    "nome": "cliente_nome",
                    "descricao": "Filtro de busca por nome do cliente",
                    "valor_exemplo": "texto de no maxixo 32 caractere",
                    "opcional": 1,
                    "validacao": [
                        {
                            "validacao": "\\RestApi\\Validacoes\\TiposSql\\Varchar",
                            "parametros": {
                                "tamanho": "32"
                            }
                        }
                    ]
                },
                {
                    "nome": "cliente_sobrenome",
                    "descricao": "Filtro de busca por sobrenome do cliente",
                    "valor_exemplo": "texto de no maxixo 32 caractere",
                    "opcional": 1,
                    "validacao": [
                        {
                            "validacao": "\\RestApi\\Validacoes\\TiposSql\\Varchar",
                            "parametros": {
                                "tamanho": "32"
                            }
                        }
                    ]
                },
                {
                    "nome": "cliente_email",
                    "descricao": "Filtro de busca por email do cliente",
                    "valor_exemplo": "texto de no maxixo 96 caractere",
                    "opcional": 1,
                    "validacao": [
                        {
                            "validacao": "\\RestApi\\Validacoes\\TiposSql\\Varchar",
                            "parametros": {
                                "tamanho": "96"
                            }
                        }
                    ]
                },
                {
                    "nome": "cliente_telefone",
                    "descricao": "Filtro de busca por telefone do cliente",
                    "valor_exemplo": "texto de no maxixo 32 caractere",
                    "opcional": 1,
                    "validacao": [
                        {
                            "validacao": "\\RestApi\\Validacoes\\TiposSql\\Varchar",
                            "parametros": {
                                "tamanho": "32"
                            }
                        }
                    ]
                },
                {
                    "nome": "cliente_rg",
                    "descricao": "Filtro de busca por RG do cliente",
                    "valor_exemplo": "texto de no maxixo 50 caractere",
                    "opcional": 1,
                    "validacao": [
                        {
                            "validacao": "\\RestApi\\Validacoes\\TiposSql\\Varchar",
                            "parametros": {
                                "tamanho": "50"
                            }
                        }
                    ]
                },
                {
                    "nome": "cliente_cpf",
                    "descricao": "Filtro de busca por cpf do cliente",
                    "valor_exemplo": "texto de no maxixo 45 caractere",
                    "opcional": 1,
                    "validacao": [
                        {
                            "validacao": "\\RestApi\\Validacoes\\TiposSql\\Varchar",
                            "parametros": {
                                "tamanho": "45"
                            }
                        }
                    ]
                },
                {
                    "nome": "cliente_cnpj",
                    "descricao": "Filtro de busca por cnpj do cliente",
                    "valor_exemplo": "texto de no maxixo 200 caractere",
                    "opcional": 1,
                    "validacao": [
                        {
                            "validacao": "\\RestApi\\Validacoes\\TiposSql\\Varchar",
                            "parametros": {
                                "tamanho": "200"
                            }
                        }
                    ]
                },
                {
                    "nome": "cliente_ie",
                    "descricao": "Filtro de busca por inscri\u00e7\u00e3o estadual do cliente",
                    "valor_exemplo": "texto de no maxixo 50 caractere",
                    "opcional": 1,
                    "validacao": [
                        {
                            "validacao": "\\RestApi\\Validacoes\\TiposSql\\Varchar",
                            "parametros": {
                                "tamanho": "50"
                            }
                        }
                    ]
                },
                {
                    "nome": "pagamento_confirmado",
                    "descricao": "Filtro de busca por confirma\u00e7\u00e3o do pagamento ('1' para pago e '0' para n\u00e3o pago)",
                    "valor_exemplo": 2,
                    "opcional": 1,
                    "validacao": [
                        {
                            "validacao": "\\RestApi\\Validacoes\\TiposSql\\SmallInt",
                            "parametros": {
                                "tamanho": "1"
                            }
                        }
                    ]
                },
                {
                    "nome": "comanda_impressao",
                    "descricao": "Filtro de busca por impress\u00e3o da comanda ('1' para impresso e '0' para n\u00e3o impresso)",
                    "valor_exemplo": 2,
                    "opcional": 1,
                    "validacao": [
                        {
                            "validacao": "\\RestApi\\Validacoes\\TiposSql\\SmallInt",
                            "parametros": {
                                "tamanho": "1"
                            }
                        }
                    ]
                },
                {
                    "nome": "fatura_impressao",
                    "descricao": "Filtro de busca por impress\u00e3o da fatura ('1' para impresso e '0' para n\u00e3o impresso)",
                    "valor_exemplo": 2,
                    "opcional": 1,
                    "validacao": [
                        {
                            "validacao": "\\RestApi\\Validacoes\\TiposSql\\SmallInt",
                            "parametros": {
                                "tamanho": "1"
                            }
                        }
                    ]
                },
                {
                    "nome": "necessita_frete",
                    "descricao": "Filtro de busca se necessita frete",
                    "valor_exemplo": "0",
                    "opcional": 1,
                    "validacao": [
                        {
                            "validacao": "\\RestApi\\Validacoes\\TiposSql\\SmallInt",
                            "parametros": {
                                "tamanho": "1"
                            }
                        }
                    ]
                },
                {
                    "nome": "data_pagamento",
                    "descricao": "Filtro de busca por data de pagamento",
                    "valor_exemplo": "2017-12-07 12:05:05",
                    "opcional": 1,
                    "validacao": [
                        {
                            "validacao": "\\RestApi\\Validacoes\\TiposSql\\DateTime",
                            "parametros": {}
                        }
                    ]
                },
                {
                    "nome": "data_pagamento_inicio",
                    "descricao": "Filtra os pedidos com a data de pagamento a partir desta data",
                    "valor_exemplo": "2017-08-01 00:00:00",
                    "opcional": 1,
                    "validacao": [
                        {
                            "validacao": "\\RestApi\\Validacoes\\TiposSql\\DateTime",
                            "parametros": {}
                        }
                    ]
                },
                {
                    "nome": "data_pagamento_fim",
                    "descricao": "Filtra os pedidos com a data de pagamento inferior a esta data",
                    "valor_exemplo": "2017-08-01 00:00:00",
                    "opcional": 1,
                    "validacao": [
                        {
                            "validacao": "\\RestApi\\Validacoes\\TiposSql\\DateTime",
                            "parametros": {}
                        }
                    ]
                },
                {
                    "nome": "cliente_logradouro",
                    "descricao": "Filtro de busca por logradouro do cliente",
                    "valor_exemplo": "texto de no maxixo 128 caractere",
                    "opcional": 1,
                    "validacao": [
                        {
                            "validacao": "\\RestApi\\Validacoes\\TiposSql\\Varchar",
                            "parametros": {
                                "tamanho": "128"
                            }
                        }
                    ]
                },
                {
                    "nome": "cliente_bairro",
                    "descricao": "Filtro de busca por bairro do cliente",
                    "valor_exemplo": "texto de no maxixo 128 caractere",
                    "opcional": 1,
                    "validacao": [
                        {
                            "validacao": "\\RestApi\\Validacoes\\TiposSql\\Varchar",
                            "parametros": {
                                "tamanho": "128"
                            }
                        }
                    ]
                },
                {
                    "nome": "cliente_cep",
                    "descricao": "Filtro de busca por cep do cliente",
                    "valor_exemplo": "texto de no maxixo 10 caractere",
                    "opcional": 1,
                    "validacao": [
                        {
                            "validacao": "\\RestApi\\Validacoes\\TiposSql\\Varchar",
                            "parametros": {
                                "tamanho": "10"
                            }
                        }
                    ]
                },
                {
                    "nome": "cliente_cidade",
                    "descricao": "Filtro de busca por cidade do cliente",
                    "valor_exemplo": "texto de no maxixo 200 caractere",
                    "opcional": 1,
                    "validacao": [
                        {
                            "validacao": "\\RestApi\\Validacoes\\TiposSql\\Varchar",
                            "parametros": {
                                "tamanho": "200"
                            }
                        }
                    ]
                },
                {
                    "nome": "cliente_uf",
                    "descricao": "Filtro de busca unidade federativa do cliente",
                    "valor_exemplo": "texto de no maxixo 128 caractere",
                    "opcional": 1,
                    "validacao": [
                        {
                            "validacao": "\\RestApi\\Validacoes\\TiposSql\\Varchar",
                            "parametros": {
                                "tamanho": "32"
                            }
                        }
                    ]
                },
                {
                    "nome": "entrega_nome",
                    "descricao": "Filtro de busca nome da pessoa que ir\u00e1 receber a entrega",
                    "valor_exemplo": "texto de no maxixo 32 caractere",
                    "opcional": 1,
                    "validacao": [
                        {
                            "validacao": "\\RestApi\\Validacoes\\TiposSql\\Varchar",
                            "parametros": {
                                "tamanho": "32"
                            }
                        }
                    ]
                },
                {
                    "nome": "entrega_sobrenome",
                    "descricao": "Filtro de busca sobrenome da pessoa que ir\u00e1 receber a entrega",
                    "valor_exemplo": "texto de no maxixo 32 caractere",
                    "opcional": 1,
                    "validacao": [
                        {
                            "validacao": "\\RestApi\\Validacoes\\TiposSql\\Varchar",
                            "parametros": {
                                "tamanho": "32"
                            }
                        }
                    ]
                },
                {
                    "nome": "entrega_logradouro",
                    "descricao": "Filtro de busca logradouro da pessoa que ir\u00e1 receber a entrega",
                    "valor_exemplo": "texto de no maxixo 128 caractere",
                    "opcional": 1,
                    "validacao": [
                        {
                            "validacao": "\\RestApi\\Validacoes\\TiposSql\\Varchar",
                            "parametros": {
                                "tamanho": "128"
                            }
                        }
                    ]
                },
                {
                    "nome": "entrega_bairro",
                    "descricao": "Filtro de busca bairro da pessoa que ir\u00e1 receber a entrega",
                    "valor_exemplo": "texto de no maxixo 128 caractere",
                    "opcional": 1,
                    "validacao": [
                        {
                            "validacao": "\\RestApi\\Validacoes\\TiposSql\\Varchar",
                            "parametros": {
                                "tamanho": "128"
                            }
                        }
                    ]
                },
                {
                    "nome": "entrega_cep",
                    "descricao": "Filtro de busca cep da pessoa que ir\u00e1 receber a entrega",
                    "valor_exemplo": "texto de no maxixo 10 caractere",
                    "opcional": 1,
                    "validacao": [
                        {
                            "validacao": "\\RestApi\\Validacoes\\TiposSql\\Varchar",
                            "parametros": {
                                "tamanho": "10"
                            }
                        }
                    ]
                },
                {
                    "nome": "entrega_cidade",
                    "descricao": "Filtro de busca por cidade de entrega",
                    "valor_exemplo": "texto de no maxixo 200 caractere",
                    "opcional": 1,
                    "validacao": [
                        {
                            "validacao": "\\RestApi\\Validacoes\\TiposSql\\Varchar",
                            "parametros": {
                                "tamanho": "200"
                            }
                        }
                    ]
                },
                {
                    "nome": "entrega_uf",
                    "descricao": "Filtro de busca unidade federativa da pessoa que ir\u00e1 receber a entrega",
                    "valor_exemplo": "texto de no maxixo 128 caractere",
                    "opcional": 1,
                    "validacao": [
                        {
                            "validacao": "\\RestApi\\Validacoes\\TiposSql\\Varchar",
                            "parametros": {
                                "tamanho": "32"
                            }
                        }
                    ]
                },
                {
                    "nome": "comentario",
                    "descricao": "Filtro de busca por comentario",
                    "valor_exemplo": "texto de no m\u00e1ximo 65535 caracteres",
                    "opcional": 1,
                    "validacao": [
                        {
                            "validacao": "\\RestApi\\Validacoes\\TiposSql\\Text",
                            "parametros": {}
                        }
                    ]
                },
                {
                    "nome": "valor_total",
                    "descricao": "Filtro de busca por valor total",
                    "valor_exemplo": "157.8",
                    "opcional": 1,
                    "validacao": [
                        {
                            "validacao": "\\RestApi\\Validacoes\\TiposSql\\Double",
                            "parametros": {
                                "tamanho": "15",
                                "decimal": "4"
                            }
                        }
                    ]
                },
                {
                    "nome": "status_id",
                    "descricao": "Filtro de busca por id do status",
                    "valor_exemplo": 987567,
                    "opcional": 1,
                    "validacao": [
                        {
                            "validacao": "\\RestApi\\Validacoes\\TiposSql\\Integer",
                            "parametros": {
                                "tamanho": "11"
                            }
                        }
                    ]
                },
                {
                    "nome": "status",
                    "descricao": "Filtro de busca por status",
                    "valor_exemplo": 2,
                    "opcional": 1,
                    "validacao": [
                        {
                            "validacao": "\\RestApi\\Validacoes\\TiposSql\\SmallInt",
                            "parametros": {
                                "tamanho": "1"
                            }
                        }
                    ]
                },
                {
                    "nome": "status_descricao",
                    "descricao": "Filtro de busca por descri\u00e7\u00e3o do status",
                    "valor_exemplo": "texto de no maxixo 64 caractere",
                    "opcional": 1,
                    "validacao": [
                        {
                            "validacao": "\\RestApi\\Validacoes\\TiposSql\\Varchar",
                            "parametros": {
                                "tamanho": "64"
                            }
                        }
                    ]
                },
                {
                    "nome": "moeda_codigo",
                    "descricao": "Filtro de busca por c\u00f3digo ISO da moeda",
                    "valor_exemplo": "texto de no maxixo 3 caractere",
                    "opcional": 1,
                    "validacao": [
                        {
                            "validacao": "\\RestApi\\Validacoes\\TiposSql\\Varchar",
                            "parametros": {
                                "tamanho": "3"
                            }
                        }
                    ]
                },
                {
                    "nome": "data_adicionado",
                    "descricao": "Filtro de busca por data que o pedido foi adicionado",
                    "valor_exemplo": "2017-12-07 12:05:05",
                    "opcional": 1,
                    "validacao": [
                        {
                            "validacao": "\\RestApi\\Validacoes\\TiposSql\\DateTime",
                            "parametros": {}
                        }
                    ]
                },
                {
                    "nome": "data_adicionado_inicio",
                    "descricao": "Filtra os pedidos adicionados a partir desta data",
                    "valor_exemplo": "2017-08-01 00:00:00",
                    "opcional": 1,
                    "validacao": [
                        {
                            "validacao": "\\RestApi\\Validacoes\\TiposSql\\DateTime",
                            "parametros": {}
                        }
                    ]
                },
                {
                    "nome": "data_adicionado_fim",
                    "descricao": "Filtra os pedidos feitos antes desta data",
                    "valor_exemplo": "2017-08-01 00:00:00",
                    "opcional": 1,
                    "validacao": [
                        {
                            "validacao": "\\RestApi\\Validacoes\\TiposSql\\DateTime",
                            "parametros": {}
                        }
                    ]
                },
                {
                    "nome": "data_modificado",
                    "descricao": "Filtro de busca por data que o pedido foi modificado",
                    "valor_exemplo": "2017-12-07 12:05:05",
                    "opcional": 1,
                    "validacao": [
                        {
                            "validacao": "\\RestApi\\Validacoes\\TiposSql\\DateTime",
                            "parametros": {}
                        }
                    ]
                },
                {
                    "nome": "loja_documento",
                    "descricao": "Filtro de busca para loja_documento",
                    "valor_exemplo": "12034723000190",
                    "opcional": 1,
                    "validacao": [
                        {
                            "validacao": "\\RestApi\\Validacoes\\TiposSql\\Text",
                            "parametros": {}
                        }
                    ]
                }
            ]
        },
        "saida_padrao": {
            "entidade": {
                "pedidos": [
                    {
                        "id": "",
                        "distribuidor_indicador_id": "",
                        "distribuidor_comprador_id": "",
                        "loja_id": "",
                        "loja_nome": "",
                        "cliente_id": "",
                        "tipo_id": "",
                        "tipo_chave": "",
                        "tipo_nome": "",
                        "tipo_descricao": "",
                        "cliente_nome": "",
                        "cliente_sobrenome": "",
                        "cliente_email": "",
                        "cliente_telefone": "",
                        "cliente_rg": "",
                        "cliente_cpf": "",
                        "cliente_cnpj": "",
                        "cliente_ie": "",
                        "pagamento_confirmado": "",
                        "comanda_impressao": "",
                        "fatura_impressao": "",
                        "necessita_frete": "",
                        "data_pagamento": "",
                        "cliente_logradouro": "",
                        "cliente_bairro": "",
                        "cliente_cep": "",
                        "cliente_numero": "",
                        "cliente_complemento": "",
                        "cliente_cidade": "",
                        "cliente_uf": "",
                        "entrega_nome": "",
                        "entrega_sobrenome": "",
                        "entrega_logradouro": "",
                        "entrega_bairro": "",
                        "entrega_cep": "",
                        "entrega_numero": "",
                        "entrega_complemento": "",
                        "entrega_cidade": "",
                        "entrega_uf": "",
                        "valor_total": "",
                        "status_id": "",
                        "status_descricao": "",
                        "moeda_codigo": "",
                        "data_adicionado": "",
                        "data_modificado": "",
                        "loja_documento": "",
                        "entrega_transportadora_codigo": "",
                        "entrega_transportadora_nome": "",
                        "pagamento_metodo_descricao": "",
                        "pagamento_metodo_codigo": "",
                        "comentario": "",
                        "itens": [
                            {
                                "item_id": "",
                                "produto_id": "",
                                "produto_descricao": "",
                                "produto_modelo": "",
                                "quantidade": "",
                                "valor_unitario": "",
                                "valor_total": "",
                                "produto_opcoes": [
                                    {
                                        "pedido_produto_opcao_id": "",
                                        "nome": "",
                                        "valor": "",
                                        "produto_opcao_id": "",
                                        "produto_opcao_valor_id": ""
                                    }
                                ]
                            }
                        ]
                    }
                ]
            }
        }
    },





    "post": {
        "metodo": "post",
        "requer_oauth": "1",
        "oauth_escopo": "pedidos_post",
        "ativo": true,
        "documentacao_padrao": {
            "titulo": "Pedidos",
            "descricao": "Inser\u00e7\u00e3o de pedidos no sistema"
        },
        "entrada_padrao": {
            "entidade": {
                "distribuidor_indicador_id": "",
                "loja_id": "",
                "cliente_id": "",
                "tipo_id": "",
                "pagamento_confirmado": "",
                "status_id": "",
                "entrega_transportadora_codigo": "",
                "pagamento_metodo_codigo": "",
                "itens": [
                    {
                        "produto_id": "",
                        "quantidade": "",
                        "produto_opcoes": [
                            {
                                "produto_opcao_valor_id": ""
                            }
                        ],
                        "pontos_customizados": [
                            {
                                "ponto_id": "",
                                "quantidade": ""
                            }
                        ],
                        "nome_customizado": "",
                        "preco_customizado": ""
                    }
                ],
                "endereco_pagador_id": "",
                "endereco_entrega_id": ""
            }
        },
        "saida_padrao": {
            "entidade": {
                "id": ""
            }
        }
    },




    "patch": {
        "metodo": "patch",
        "requer_oauth": 0,
        "oauth_escopo": "",
        "ativo": false
    },
    "put": {
        "metodo": "put",
        "requer_oauth": 0,
        "oauth_escopo": "",
        "ativo": false
    },
    "delete": {
        "metodo": "delete",
        "requer_oauth": 0,
        "oauth_escopo": "",
        "ativo": false
    }
}